{
    "prefix":"!",
    "separator":" / ",
    "token":"token",
    "commands":[
        {
            "role_id":"676506919183187981",
            "command_name":"R6"
        },
        {
            "role_id":"826828353768128513",
            "command_name":"R6"
        },
        {
            "role_id":"679760745382412311",
            "command_name":"FH4"
        },
        {
            "role_id":"607151406406696961",
            "command_name":"CS"
        },
        {
            "role_id":"607156747555176460",
            "command_name":"Payday2"
        },
        {
            "role_id":"826828362307600396",
            "command_name":"Payday2"
        },
        {
            "role_id":"607151523356606464",
            "command_name":"Apex"
        },
        {
            "role_id":"826828758447161344",
            "command_name":"Apex"
        },
        {
            "role_id":"607154348799033364",
            "command_name":"Warface"
        },
        {
            "role_id":"607154423914954753",
            "command_name":"Destiny2"
        },
        {
            "role_id":"826828569514606633",
            "command_name":"Destiny2"
        },
        {
            "role_id":"607154510959476736",
            "command_name":"H1Z1"
        },
        {
            "role_id":"607154626470346762",
            "command_name":"Deceit"
        },
        {
            "role_id":"607157020239331358",
            "command_name":"Overwatch"
        },
        {
            "role_id":"826829027925950556",
            "command_name":"Overwatch"
        },
        {
            "role_id":"631543435567824896",
            "command_name":"Roblox"
        },
        {
            "role_id":"754968242627543050",
            "command_name":"WoTWoWs"
        },
        {
            "role_id":"754968175078015006",
            "command_name":"Warframe"
        },
        {
            "role_id":"753890185359523841",
            "command_name":"Valorant"
        },
        {
            "role_id":"826829173753774170",
            "command_name":"Valorant"
        },
        {
            "role_id":"755321627717140480",
            "command_name":"Spellbreak"
        },
        {
            "role_id":"753889955054354443",
            "command_name":"SoulsPlayer"
        },
        {
            "role_id":"753889838020689940",
            "command_name":"Smash"
        },
        {
            "role_id":"753891103354388492",
            "command_name":"SC"
        },
        {
            "role_id":"755465662004068392",
            "command_name":"RocketLeague"
        },
        {
            "role_id":"7553213943421338423",
            "command_name":"Remnant"
        },
        {
            "role_id":"753889626581893140",
            "command_name":"RainbowSix"
        },
        {
            "role_id":"755321607248937031",
            "command_name":"PD2"
        },
        {
            "role_id":"755082851094888489",
            "command_name":"OW"
        },
        {
            "role_id":"755328865592934430",
            "command_name":"MonsterHunter"
        },
        {
            "role_id":"753891121494622300",
            "command_name":"MMORPG"
        },
        {
            "role_id":"753889760967262219",
            "command_name":"Minecraft"
        },
        {
            "role_id":"752804995518169169",
            "command_name":"LoL"
        },
        {
            "role_id":"755108345249136720",
            "command_name":"HI3"
        },
        {
            "role_id":"753889652544503828",
            "command_name":"GTAV"
        },
        {
            "role_id":"760128508910895105",
            "command_name":"GenshinImpact"
        },
        {
            "role_id":"753891059750273067",
            "command_name":"Gachapon"
        },
        {
            "role_id":"755082662372179970",
            "command_name":"Fortnite "
        },
        {
            "role_id":"753890814647599165",
            "command_name":"FallGuys"
        },
        {
            "role_id":"755110642012258314",
            "command_name":"Factorio"
        },
        {
            "role_id":"755321560751145114",
            "command_name":"D2"
        },
        {
            "role_id":"755321537288077403",
            "command_name":"Deceit1"
        },
        {
            "role_id":"753889892265885757",
            "command_name":"DBD"
        },
        {
            "role_id":"755328792419106847",
            "command_name":"Dauntless"
        },
        {
            "role_id":"755313460304412735",
            "command_name":"CSGO"
        },
        {
            "role_id":"753890175784058931",
            "command_name":"Civilisation"
        },
        {
            "role_id":"753890074487160903",
            "command_name":"Borderland"
        },
        {
            "role_id":"753889673201319957",
            "command_name":"Apex1"
        },
        {
            "role_id":"755321477150277675",
            "command_name":"AmongUS"
        },
        {
            "role_id":"825118710200008704",
            "command_name":"cs"
        },
        {
            "role_id":"825129555052331109",
            "command_name":"Accepter"
        },
        {
            "role_id":"825129555052331109",
            "command_name":"accepter"
        },
        {
            "role_id":"826829255916781569",
            "command_name":"LoL"
        },
        {
            "role_id":"826829548582731787",
            "command_name":"Minecraft"
        },
        {
            "role_id":"826829823611240458",
            "command_name":"GTAV"
        },
        {
            "role_id":"826829936999661628",
            "command_name":"Rust"
        },
        {
            "role_id":"826830323256918087",
            "command_name":"RL"
        }
    ]
}    
